{
  "name": "TestAutomationProject",
  "description": "Test Automation Project",
  "main": "Main.xaml",
  "dependencies": {
    "BalaReva.WindowsService.Activities": "[2.0.0]",
    "ReporterForUiPath.Activities": "[2.0.0]",
    "UiPath.System.Activities": "[22.4.4]",
    "UiPath.Testing.Activities": "[22.4.3]",
    "UiPath.UIAutomation.Activities": "[22.4.7]"
  },
  "webServices": [],
  "entitiesStores": [],
  "schemaVersion": "4.0",
  "studioVersion": "22.4.4.0",
  "projectVersion": "1.0.0",
  "runtimeOptions": {
    "autoDispose": false,
    "netFrameworkLazyLoading": false,
    "isPausable": true,
    "isAttended": false,
    "requiresUserInteraction": true,
    "supportsPersistence": false,
    "excludedLoggedData": [
      "Private:*",
      "*password*"
    ],
    "executionType": "Workflow",
    "readyForPiP": false,
    "startsInPiP": false,
    "mustRestoreAllDependencies": true
  },
  "designOptions": {
    "projectProfile": "Developement",
    "outputType": "Tests",
    "libraryOptions": {
      "includeOriginalXaml": false,
      "privateWorkflows": []
    },
    "processOptions": {
      "ignoredFiles": []
    },
    "fileInfoCollection": [],
    "modernBehavior": true
  },
  "expressionLanguage": "VisualBasic",
  "isTemplate": false,
  "templateProjectData": {},
  "publishData": {},
  "targetFramework": "Legacy"
}